0,Septicemia (except in labor),C0036690/C0243026
1,Acute and unspecified renal failure,C0035078/C0022660/C3854173
2,Congestive heart failure; nonhypertensive,C0018802
3,Pneumonia (except that caused by tuberculosis or sexually transmitted disease),C0032285
4,Fluid and electrolyte disorders,C1704431/C0267994
5,Other liver diseases,C0023895
6,Hypertension with complications and secondary hypertension,C0852035/C0155616
7,Deficiency and other anemia,C0162429/C0002871
8,Other nutritional; endocrine; and metabolic disorders,C0025517
9,Essential hypertension,C0085580
10,Coronary atherosclerosis and other heart disease,C0010054/C0018799
11,Diabetes mellitus without complication,C0271635
12,Disorders of lipid metabolism,C0154251
13,Diabetes mellitus with complications,C0342257
14,Cardiac dysrhythmias,C0003811/C0264886
15,Other nervous system disorders,C0027765
16,Heart valve disorders,C0018824
17,Esophageal disorders,C0014852
18,Hodgkin`s disease,C0019829
19,Respiratory failure; insufficiency; arrest (adult),C1145670
20,Multiple myeloma,C0026764
21,Chronic kidney disease,C1561643
22,Systemic lupus erythematosus and connective tissue disorders,C0024141/C2984317/C0009782
23,Other non-epithelial cancer of skin,C0007114
24,Cancer of liver and intrahepatic bile duct,C0345905/C0546835/C0279000
25,Melanomas of skin,C0151779
26,Multiple sclerosis,C0026769/C1417325
27,Other CNS infection and poliomyelitis,C0007684/C0032371
28,Lymphadenitis,C0024205
29,Cancer of rectum and anus,C0007113/C0279637